Assignment 1: Census Data Quality for Policy Decisions – Jinheng Cen - MUSA 5080 Portfolio
…
Departments should not just rely on the algorithm to make their decisions. On-site investigation and community engagement is crucial to know the truth. There are stories, knowledge, and so on that can not reflect from numbers. Planners should be critical about the results of data-driven analysis.

6.3 Specific Recommendations

Your Task: Create a decision framework for algorithm implementation.

# Create a summary table using your county reliability data
# Include: county name, median income, MOE percentage, reliability category

summary_county <- county_data %>%
  select(county_name,median_incomeE,median_incomeMOE,rel_categories)

summary_county

# A tibble: 21 × 4
   county_name median_incomeE median_incomeMOE rel_categories 
   <chr>                <dbl>            <dbl> <chr>          
 1 Atlantic             73113             2.62 High Confidence
 2 Bergen              118714             1.35 High Confidence
 3 Burlington          102615             1.40 High Confidence
 4 Camden               82005             1.72 High Confidence
 5 Cape May             83870             4.42 High Confidence
 6 Cumberland           62310             3.54 High Confidence
 7 Essex                73785             2.00 High Confidence
 8 Gloucester           99668             2.61 High Confidence
 9 Hudson               86854             2.05 High Confidence
10 Hunterdon           133534             2.42 High Confidence
# ℹ 11 more rows
…
